{
    "page": 2,
    "pages": 5,
    "perPage": 2,
    "total": 10,
    "maps": [
        "/map/12345/",
        "/map/12345/"
    ]
}